In-Class 10/31
…
spnames <- wiki_url %>% 
  read_html() %>% 
  html_elements("td:nth-child(2) a") %>% 
  html_text()

urls[1] %>% #trying one to make sure it works before using all the urls
  read_html() %>% 
  html_elements("p+ ul li , p") %>% 
  html_text() %>% 
  tibble() %>% 
  mutate(document = spnames[1])

# A tibble: 59 × 2
   .                                                                    document
   <chr>                                                                <chr>   
 1 "\n\n"                                                               3M      
 2 "3M Company (originally the Minnesota Mining and Manufacturing Comp… 3M      
 3 "3M made $35.4 billion in total sales in 2021 and ranked number 102… 3M      
 4 "In June 2023, 3M reached a settlement to pay more than $10 billion… 3M      
 5 "Five businessmen founded the Minnesota Mining and Manufacturing Co… 3M      
 6 "The company moved to Saint Paul in 1910, where it remained for 52 … 3M      
 7 "In 1947, 3M began producing perfluorooctanoic acid (PFOA) by elect… 3M      
 8 "In 1951, DuPont purchased PFOA from then-Minnesota Mining and Manu… 3M      
 9 "In the late 1950s, 3M produced the first asthma inhaler,[21] but t… 3M      
10 "The acquisition of Riker Laboratories, moving it from California t… 3M      
# ℹ 49 more rows
…
